Chapter 13 Advanced & Miscellaneous Topics | RxODE user manual
…
#> ______________________________ Solved RxODE object _____________________________
#> -- Parameters ($params): -------------------------------------------------------
#> # A tibble: 4 x 11
#>   id       KA    WT    V2     Q    V3   Kin  Kout  EC50    Tz   amp
#>   <fct> <dbl> <dbl> <dbl> <dbl> <dbl> <dbl> <dbl> <dbl> <dbl> <dbl>
#> 1 1     0.294  70.2  40.2  10.5   297     1     1   200     8   0.1
#> 2 2     0.294  68.2  40.2  10.5   297     1     1   200     8   0.1
#> 3 3     0.294  56.3  40.2  10.5   297     1     1   200     8   0.1
#> 4 4     0.294  64.0  40.2  10.5   297     1     1   200     8   0.1
#> -- Initial Conditions ($inits): ------------------------------------------------
#> eff 
#>   1 
#> -- First part of data (object): ------------------------------------------------
#> # A tibble: 400 x 6
#>      id      time    CL    C2   eff    WT
#>   <int>       [h] <dbl> <dbl> <dbl> <dbl>
#> 1     1 0.0000000  18.6   0    1     70.2
#> 2     1 0.4848485  18.6  27.8  1.03  70.2
#> 3     1 0.9696970  18.6  43.7  1.08  70.2
#> 4     1 1.4545455  18.6  51.7  1.13  70.2
#> 5     1 1.9393939  18.6  54.7  1.18  70.2
#> 6     1 2.4242424  18.6  54.5  1.21  70.2
#> # ... with 394 more rows
…
r1 <- solve(mod3, ev, covs_interpolation="linear")
print(r1)
#> ______________________________ Solved RxODE object _____________________________
#> -- Parameters ($params): -------------------------------------------------------
#>         KA         CL         V2          Q         V3       Kin0       Kout 
#>   0.294000  18.600000  40.200000  10.500000 297.000000   1.000000   1.000000 
#>       EC50         Tz        amp         pi 
#> 200.000000   8.000000   0.100000   3.141593 
#> -- Initial Conditions ($inits): ------------------------------------------------
#> eff 
#>   1 
#> -- First part of data (object): ------------------------------------------------
#> # A tibble: 100 x 4
#>        time    C2   Kin   eff
#>         [h] <dbl> <dbl> <dbl>
#> 1 0.0000000   0    1.1   1   
#> 2 0.4848485  27.8  1.10  1.07
#> 3 0.9696970  43.7  1.10  1.15
#> 4 1.4545455  51.8  1.09  1.22
#> 5 1.9393939  54.8  1.09  1.27
#> 6 2.4242424  54.6  1.08  1.30
#> # ... with 94 more rows
…
r1 <- solve(mod3, ev,covs_interpolation="constant")
print(r1)
#> ______________________________ Solved RxODE object _____________________________
#> -- Parameters ($params): -------------------------------------------------------
#>         KA         CL         V2          Q         V3       Kin0       Kout 
#>   0.294000  18.600000  40.200000  10.500000 297.000000   1.000000   1.000000 
#>       EC50         Tz        amp         pi 
#> 200.000000   8.000000   0.100000   3.141593 
#> -- Initial Conditions ($inits): ------------------------------------------------
#> eff 
#>   1 
#> -- First part of data (object): ------------------------------------------------
#> # A tibble: 100 x 4
#>        time    C2   Kin   eff
#>         [h] <dbl> <dbl> <dbl>
#> 1 0.0000000   0    1.1   1   
#> 2 0.4848485  27.8  1.10  1.07
#> 3 0.9696970  43.7  1.10  1.15
#> 4 1.4545455  51.8  1.09  1.22
#> 5 1.9393939  54.8  1.09  1.27
#> 6 2.4242424  54.6  1.08  1.31
#> # ... with 94 more rows
…
r1 <- solve(mod3, ev,covs_interpolation="nocb")
print(r1)
#> ______________________________ Solved RxODE object _____________________________
#> -- Parameters ($params): -------------------------------------------------------
#>         KA         CL         V2          Q         V3       Kin0       Kout 
#>   0.294000  18.600000  40.200000  10.500000 297.000000   1.000000   1.000000 
#>       EC50         Tz        amp         pi 
#> 200.000000   8.000000   0.100000   3.141593 
#> -- Initial Conditions ($inits): ------------------------------------------------
#> eff 
#>   1 
#> -- First part of data (object): ------------------------------------------------
#> # A tibble: 100 x 4
#>        time    C2   Kin   eff
#>         [h] <dbl> <dbl> <dbl>
#> 1 0.0000000   0    1.1   1   
#> 2 0.4848485  27.8  1.10  1.07
#> 3 0.9696970  43.7  1.10  1.15
#> 4 1.4545455  51.8  1.09  1.21
#> 5 1.9393939  54.8  1.09  1.27
#> 6 2.4242424  54.6  1.08  1.30
#> # ... with 94 more rows
…
library(dplyr)
pars <- rxInits(Ribba2012);
pars <- pars[regexpr("(prop|eta)",names(pars)) == -1]
print(pars)
#>        k     tkde     tkpq    tkqpp tlambdap   tgamma tdeltaqp     tpt0 
#> 1.00e+02 2.40e-01 2.95e-02 3.10e-03 1.21e-01 7.29e-01 8.67e-03 7.13e+00 
#>      tq0 
#> 4.12e+01
#### This is the exported method for simulation of Theta/Omega internally in RxODE
df <- rxSimThetaOmega(params=pars, omega=omega,dfSub=760,
                      thetaMat=thetaMat, thetaLower=0, nSub=60,nStud=60) %>%
    filter(tkde > tlambdap) %>% as.tbl()
#### You could also simulate more and bind them together to a data frame.
print(df)
#> # A tibble: 2,340 x 16
#>        k  tkde   tkpq tkqpp tlambdap tgamma tdeltaqp  tpt0   tq0 eta.pt0 eta.q0
#>    <dbl> <dbl>  <dbl> <dbl>    <dbl>  <dbl>    <dbl> <dbl> <dbl>   <dbl>  <dbl>
#>  1   100  2.83 0.0295 0.239    0.683  0.861     1.25  7.67  42.0  0.559   0.136
#>  2   100  2.83 0.0295 0.239    0.683  0.861     1.25  7.67  42.0  0.0465 -0.581
#>  3   100  2.83 0.0295 0.239    0.683  0.861     1.25  7.67  42.0 -0.188  -0.180
#>  4   100  2.83 0.0295 0.239    0.683  0.861     1.25  7.67  42.0  0.321   0.614
#>  5   100  2.83 0.0295 0.239    0.683  0.861     1.25  7.67  42.0  0.0656 -0.232
#>  6   100  2.83 0.0295 0.239    0.683  0.861     1.25  7.67  42.0  0.0194  0.517
#>  7   100  2.83 0.0295 0.239    0.683  0.861     1.25  7.67  42.0 -0.218   0.260
#>  8   100  2.83 0.0295 0.239    0.683  0.861     1.25  7.67  42.0 -0.258  -0.761
#>  9   100  2.83 0.0295 0.239    0.683  0.861     1.25  7.67  42.0 -1.28   -1.34 
#> 10   100  2.83 0.0295 0.239    0.683  0.861     1.25  7.67  42.0 -0.495   0.161
#> # ... with 2,330 more rows, and 5 more variables: eta.lambdap <dbl>,
#> #   eta.kqp <dbl>, eta.qpp <dbl>, eta.deltaqp <dbl>, eta.kde <dbl>
…
et <- eventTable();
et$add.sampling(seq(0, 10, length.out=200));
et$add.dosing(20, start.time=0);

s1 <- Vtpol2 %>%  solve(et, method="lsoda")
print(s1)
#> ______________________________ Solved RxODE object _____________________________
#> -- Parameters ($params): -------------------------------------------------------
#> mu 
#>  1 
#> -- Initial Conditions ($inits): ------------------------------------------------
#>  y dy 
#>  2  0 
#> -- First part of data (object): ------------------------------------------------
#> # A tibble: 200 x 3
#>     time     y      dy
#>    <dbl> <dbl>   <dbl>
#> 1 0       22    0     
#> 2 0.0503  22.0 -0.0456
#> 3 0.101   22.0 -0.0456
#> 4 0.151   22.0 -0.0456
#> 5 0.201   22.0 -0.0456
#> 6 0.251   22.0 -0.0456
#> # ... with 194 more rows
#> ________________________________________________________________________________

While this is not stiff at mu=1, mu=1000 is a stiff system

s2 <- Vtpol2 %>%  solve(c(mu=1000), et)
print(s2)
#> ______________________________ Solved RxODE object _____________________________
#> -- Parameters ($params): -------------------------------------------------------
#>   mu 
#> 1000 
#> -- Initial Conditions ($inits): ------------------------------------------------
#>  y dy 
#>  2  0 
#> -- First part of data (object): ------------------------------------------------
#> # A tibble: 200 x 3
#>     time     y         dy
#>    <dbl> <dbl>      <dbl>
#> 1 0       22    0        
#> 2 0.0503  22.0 -0.0000455
#> 3 0.101   22.0 -0.0000455
#> 4 0.151   22.0 -0.0000455
#> 5 0.201   22.0 -0.0000455
#> 6 0.251   22.0 -0.0000455
#> # ... with 194 more rows
…
