Chapter 7 Easily creating RxODE events | RxODE user manual
…
ev <- et(timeUnits="hr") %>%
  et(amt=10000, until = set_units(3, days),
     ii=12) %>% # loading doses
  et(seq(0,48,length.out=200)) %>%
  et(id=1:4)

ev

#> ──────────────── EventTable with 804 records ───────────────
#>    4 individuals
#>    4 dosing records (see x$get.dosing(); add with add.dosing or et)
#>    800 observation times (see x$get.sampling(); add with add.sampling or et)
#>    multiple doses in `addl` columns, expand with x$expand(); or etExpand(x)
#> ── First part of x: ────────────────────────────────────────
#> # A tibble: 804 x 6
#>       id      time   amt    ii  addl evid         
#>    <int>       [h] <dbl>   [h] <int> <evid>       
#>  1     1 0.0000000    NA    NA    NA 0:Observation
#>  2     1 0.0000000 10000    12     6 1:Dose (Add) 
#>  3     1 0.2412060    NA    NA    NA 0:Observation
#>  4     1 0.4824121    NA    NA    NA 0:Observation
#>  5     1 0.7236181    NA    NA    NA 0:Observation
#>  6     1 0.9648241    NA    NA    NA 0:Observation
#>  7     1 1.2060302    NA    NA    NA 0:Observation
#>  8     1 1.4472362    NA    NA    NA 0:Observation
#>  9     1 1.6884422    NA    NA    NA 0:Observation
#> 10     1 1.9296482    NA    NA    NA 0:Observation
#> # … with 794 more rows
…
