Chapter 6 RxODE events | RxODE user manual
…
ev <- et(timeUnits="hr") %>%
    et(amt=10000, ii=12,until=24) %>%
    et(seq(0, 24, length.out=100))

ev

#> ──────────────── EventTable with 101 records ───────────────
#> 
#>    1 dosing records (see x$get.dosing(); add with add.dosing or et)
#>    100 observation times (see x$get.sampling(); add with add.sampling or et)
#>    multiple doses in `addl` columns, expand with x$expand(); or etExpand(x)
#> ── First part of x: ────────────────────────────────────────
#> # A tibble: 101 x 5
#>         time   amt    ii  addl evid         
#>          [h] <dbl>   [h] <int> <evid>       
#>  1 0.0000000    NA    NA    NA 0:Observation
#>  2 0.0000000 10000    12     2 1:Dose (Add) 
#>  3 0.2424242    NA    NA    NA 0:Observation
#>  4 0.4848485    NA    NA    NA 0:Observation
#>  5 0.7272727    NA    NA    NA 0:Observation
#>  6 0.9696970    NA    NA    NA 0:Observation
#>  7 1.2121212    NA    NA    NA 0:Observation
#>  8 1.4545455    NA    NA    NA 0:Observation
#>  9 1.6969697    NA    NA    NA 0:Observation
#> 10 1.9393939    NA    NA    NA 0:Observation
#> # … with 91 more rows
…
An example of this is:

ev <- et(timeUnits="hr") %>%
    et(amt=10000, ii=12,until=24, dur=8) %>%
    et(seq(0, 24, length.out=100))

ev

#> ──────────────── EventTable with 101 records ───────────────
#> 
#>    1 dosing records (see x$get.dosing(); add with add.dosing or et)
#>    100 observation times (see x$get.sampling(); add with add.sampling or et)
#>    multiple doses in `addl` columns, expand with x$expand(); or etExpand(x)
#> ── First part of x: ────────────────────────────────────────
#> # A tibble: 101 x 6
#>         time   amt    ii  addl evid            dur
#>          [h] <dbl>   [h] <int> <evid>          [h]
#>  1 0.0000000    NA    NA    NA 0:Observation    NA
#>  2 0.0000000 10000    12     2 1:Dose (Add)      8
#>  3 0.2424242    NA    NA    NA 0:Observation    NA
#>  4 0.4848485    NA    NA    NA 0:Observation    NA
#>  5 0.7272727    NA    NA    NA 0:Observation    NA
#>  6 0.9696970    NA    NA    NA 0:Observation    NA
#>  7 1.2121212    NA    NA    NA 0:Observation    NA
#>  8 1.4545455    NA    NA    NA 0:Observation    NA
#>  9 1.6969697    NA    NA    NA 0:Observation    NA
#> 10 1.9393939    NA    NA    NA 0:Observation    NA
#> # … with 91 more rows
…
It can be also specified by the rate component:

ev <- et(timeUnits="hr") %>%
    et(amt=10000, ii=12,until=24, rate=10000/8) %>%
    et(seq(0, 24, length.out=100))

ev

#> ──────────────── EventTable with 101 records ───────────────
#> 
#>    1 dosing records (see x$get.dosing(); add with add.dosing or et)
#>    100 observation times (see x$get.sampling(); add with add.sampling or et)
#>    multiple doses in `addl` columns, expand with x$expand(); or etExpand(x)
#> ── First part of x: ────────────────────────────────────────
#> # A tibble: 101 x 6
#>         time   amt rate          ii  addl evid         
#>          [h] <dbl> <rate/dur>   [h] <int> <evid>       
#>  1 0.0000000    NA NA            NA    NA 0:Observation
#>  2 0.0000000 10000  1250         12     2 1:Dose (Add) 
#>  3 0.2424242    NA NA            NA    NA 0:Observation
#>  4 0.4848485    NA NA            NA    NA 0:Observation
#>  5 0.7272727    NA NA            NA    NA 0:Observation
#>  6 0.9696970    NA NA            NA    NA 0:Observation
#>  7 1.2121212    NA NA            NA    NA 0:Observation
#>  8 1.4545455    NA NA            NA    NA 0:Observation
#>  9 1.6969697    NA NA            NA    NA 0:Observation
#> 10 1.9393939    NA NA            NA    NA 0:Observation
#> # … with 91 more rows
…
ev <- et(timeUnits="hr") %>%
    et(amt=10000, ii=12,until=24, dur=model) %>%
    et(seq(0, 24, length.out=100))

ev

#> ──────────────── EventTable with 101 records ───────────────
#> 
#>    1 dosing records (see x$get.dosing(); add with add.dosing or et)
#>    100 observation times (see x$get.sampling(); add with add.sampling or et)
#>    multiple doses in `addl` columns, expand with x$expand(); or etExpand(x)
#> ── First part of x: ────────────────────────────────────────
#> # A tibble: 101 x 6
#>         time   amt rate          ii  addl evid         
#>          [h] <dbl> <rate/dur>   [h] <int> <evid>       
#>  1 0.0000000    NA NA            NA    NA 0:Observation
#>  2 0.0000000 10000 -2:dur        12     2 1:Dose (Add) 
#>  3 0.2424242    NA NA            NA    NA 0:Observation
#>  4 0.4848485    NA NA            NA    NA 0:Observation
#>  5 0.7272727    NA NA            NA    NA 0:Observation
#>  6 0.9696970    NA NA            NA    NA 0:Observation
#>  7 1.2121212    NA NA            NA    NA 0:Observation
#>  8 1.4545455    NA NA            NA    NA 0:Observation
#>  9 1.6969697    NA NA            NA    NA 0:Observation
#> 10 1.9393939    NA NA            NA    NA 0:Observation
#> # … with 91 more rows
…
ev <- et(timeUnits="hr") %>%
    et(amt=10000, ii=12,until=24, rate=model) %>%
    et(seq(0, 24, length.out=100))

ev

#> ──────────────── EventTable with 101 records ───────────────
#> 
#>    1 dosing records (see x$get.dosing(); add with add.dosing or et)
#>    100 observation times (see x$get.sampling(); add with add.sampling or et)
#>    multiple doses in `addl` columns, expand with x$expand(); or etExpand(x)
#> ── First part of x: ────────────────────────────────────────
#> # A tibble: 101 x 6
#>         time   amt rate          ii  addl evid         
#>          [h] <dbl> <rate/dur>   [h] <int> <evid>       
#>  1 0.0000000    NA NA            NA    NA 0:Observation
#>  2 0.0000000 10000 -1:rate       12     2 1:Dose (Add) 
#>  3 0.2424242    NA NA            NA    NA 0:Observation
#>  4 0.4848485    NA NA            NA    NA 0:Observation
#>  5 0.7272727    NA NA            NA    NA 0:Observation
#>  6 0.9696970    NA NA            NA    NA 0:Observation
#>  7 1.2121212    NA NA            NA    NA 0:Observation
#>  8 1.4545455    NA NA            NA    NA 0:Observation
#>  9 1.6969697    NA NA            NA    NA 0:Observation
#> 10 1.9393939    NA NA            NA    NA 0:Observation
#> # … with 91 more rows
…
These doses are solved until a steady state is
reached with a constant inter-dose interval.

ev <- et(timeUnits="hr") %>%
    et(amt=10000, ii=12, ss=1) %>%
    et(seq(0, 24, length.out=100))

ev

#> ──────────────── EventTable with 101 records ───────────────
#> 
#>    1 dosing records (see x$get.dosing(); add with add.dosing or et)
#>    100 observation times (see x$get.sampling(); add with add.sampling or et)
#> ── First part of x: ────────────────────────────────────────
#> # A tibble: 101 x 5
#>         time   amt    ii evid             ss
#>          [h] <dbl>   [h] <evid>        <int>
#>  1 0.0000000    NA    NA 0:Observation    NA
#>  2 0.0000000 10000    12 1:Dose (Add)      1
#>  3 0.2424242    NA    NA 0:Observation    NA
#>  4 0.4848485    NA    NA 0:Observation    NA
#>  5 0.7272727    NA    NA 0:Observation    NA
#>  6 0.9696970    NA    NA 0:Observation    NA
#>  7 1.2121212    NA    NA 0:Observation    NA
#>  8 1.4545455    NA    NA 0:Observation    NA
#>  9 1.6969697    NA    NA 0:Observation    NA
#> 10 1.9393939    NA    NA 0:Observation    NA
#> # … with 91 more rows
…
ev <- et(timeUnits="hr") %>%
    et(amt=10000, ii=12, addl=3) %>%
    et(time=6, evid=reset) %>%
    et(seq(0, 24, length.out=100))

ev

#> ──────────────── EventTable with 102 records ───────────────
#> 
#>    2 dosing records (see x$get.dosing(); add with add.dosing or et)
#>    100 observation times (see x$get.sampling(); add with add.sampling or et)
#>    multiple doses in `addl` columns, expand with x$expand(); or etExpand(x)
#> ── First part of x: ────────────────────────────────────────
#> # A tibble: 102 x 5
#>         time   amt    ii  addl evid         
#>          [h] <dbl>   [h] <int> <evid>       
#>  1 0.0000000    NA    NA    NA 0:Observation
#>  2 0.0000000 10000    12     3 1:Dose (Add) 
#>  3 0.2424242    NA    NA    NA 0:Observation
#>  4 0.4848485    NA    NA    NA 0:Observation
#>  5 0.7272727    NA    NA    NA 0:Observation
#>  6 0.9696970    NA    NA    NA 0:Observation
#>  7 1.2121212    NA    NA    NA 0:Observation
#>  8 1.4545455    NA    NA    NA 0:Observation
#>  9 1.6969697    NA    NA    NA 0:Observation
#> 10 1.9393939    NA    NA    NA 0:Observation
#> # … with 92 more rows
…
ev <- et(timeUnits="hr") %>%
    et(amt=10000, ii=12, addl=3) %>%
    et(time=6, amt=10000, evid=4) %>%
    et(seq(0, 24, length.out=100))

ev

#> ──────────────── EventTable with 102 records ───────────────
#> 
#>    2 dosing records (see x$get.dosing(); add with add.dosing or et)
#>    100 observation times (see x$get.sampling(); add with add.sampling or et)
#>    multiple doses in `addl` columns, expand with x$expand(); or etExpand(x)
#> ── First part of x: ────────────────────────────────────────
#> # A tibble: 102 x 5
#>         time   amt    ii  addl evid         
#>          [h] <dbl>   [h] <int> <evid>       
#>  1 0.0000000    NA    NA    NA 0:Observation
#>  2 0.0000000 10000    12     3 1:Dose (Add) 
#>  3 0.2424242    NA    NA    NA 0:Observation
#>  4 0.4848485    NA    NA    NA 0:Observation
#>  5 0.7272727    NA    NA    NA 0:Observation
#>  6 0.9696970    NA    NA    NA 0:Observation
#>  7 1.2121212    NA    NA    NA 0:Observation
#>  8 1.4545455    NA    NA    NA 0:Observation
#>  9 1.6969697    NA    NA    NA 0:Observation
#> 10 1.9393939    NA    NA    NA 0:Observation
#> # … with 92 more rows
…
ev <- et(timeUnits="hr") %>%
    et(amt=10000, ii=12, addl=3) %>%
    et(time=6, cmt="-depot", evid=2) %>%
    et(seq(0, 24, length.out=100))

ev

#> ──────────────── EventTable with 102 records ───────────────
#> 
#>    2 dosing records (see x$get.dosing(); add with add.dosing or et)
#>    100 observation times (see x$get.sampling(); add with add.sampling or et)
#>    multiple doses in `addl` columns, expand with x$expand(); or etExpand(x)
#> ── First part of x: ────────────────────────────────────────
#> # A tibble: 102 x 6
#>         time cmt         amt    ii  addl evid         
#>          [h] <chr>     <dbl>   [h] <int> <evid>       
#>  1 0.0000000 (obs)        NA    NA    NA 0:Observation
#>  2 0.0000000 (default) 10000    12     3 1:Dose (Add) 
#>  3 0.2424242 (obs)        NA    NA    NA 0:Observation
#>  4 0.4848485 (obs)        NA    NA    NA 0:Observation
#>  5 0.7272727 (obs)        NA    NA    NA 0:Observation
#>  6 0.9696970 (obs)        NA    NA    NA 0:Observation
#>  7 1.2121212 (obs)        NA    NA    NA 0:Observation
#>  8 1.4545455 (obs)        NA    NA    NA 0:Observation
#>  9 1.6969697 (obs)        NA    NA    NA 0:Observation
#> 10 1.9393939 (obs)        NA    NA    NA 0:Observation
#> # … with 92 more rows
…
